<svg id="Grupo_628" data-name="Grupo 628" xmlns="http://www.w3.org/2000/svg" width="56.923" height="56.924" viewBox="0 0 56.923 56.924">
  <path id="Trazado_254" data-name="Trazado 254" d="M709.341,166.441a1.892,1.892,0,0,0-2.675-.071l-15.29,14.5-7.449-7.649a1.893,1.893,0,0,0-2.712,2.641l8.752,8.986a1.893,1.893,0,0,0,2.659.052l16.644-15.784a1.892,1.892,0,0,0,.07-2.675Z" transform="translate(-666.769 -147.174)" fill="#05cea0"/>
  <path id="Trazado_255" data-name="Trazado 255" d="M585.975.486a28.462,28.462,0,1,0,28.462,28.462A28.494,28.494,0,0,0,585.975.486Zm0,53.139a24.677,24.677,0,1,1,24.677-24.677A24.7,24.7,0,0,1,585.975,53.625Z" transform="translate(-557.513 -0.486)" fill="#05cea0"/>
</svg>
